{
  "model": {
    "type": "minecraft:model",
    "model": "minecraft:item/template_spawn_egg",
    "tints": [
      {
        "type": "minecraft:constant",
        "value": -12642513
      },
      {
        "type": "minecraft:constant",
        "value": -9368032
      }
    ]
  }
}