{
  "model": {
    "type": "minecraft:model",
    "model": "minecraft:item/template_spawn_egg",
    "tints": [
      {
        "type": "minecraft:constant",
        "value": -14725868
      },
      {
        "type": "minecraft:constant",
        "value": -7456767
      }
    ]
  }
}