{
  "model": {
    "type": "minecraft:model",
    "model": "minecraft:item/template_spawn_egg",
    "tints": [
      {
        "type": "minecraft:constant",
        "value": -6015948
      },
      {
        "type": "minecraft:constant",
        "value": -4498903
      }
    ]
  }
}