{
  "feature": "nethercraft:glowshroom_garden_vegetation",
  "placement": [
    {
      "type": "minecraft:count_on_every_layer",
      "count": 3
    },
    {
      "type": "minecraft:biome"
    }
  ]
}