{
	"type": "minecraft:block",
	"pools": [
		{
			"name": "leaf",
			"rolls": 1,
			"entries": [
				{
					"type": "minecraft:alternatives",
					"children": [
						{
							"type": "minecraft:item",
							"name": "nethercraft:glowood_leaves",
							"conditions": [
								{
									"condition": "minecraft:alternative",
									"terms": [
										{
											"condition": "minecraft:match_tool",
											"predicate": {
												"item": "minecraft:shears"
											}
										},
										{
											"condition": "minecraft:match_tool",
											"predicate": {
												"enchantments": [
													{
														"enchantment": "minecraft:silk_touch",
														"levels": {
															"min": 1
														}
													}
												]
											}
										}
									]
								}
							]
						},
						{
							"type": "minecraft:item",
							"name": "nethercraft:glowood_sapling",
							"conditions": [
								{
									"condition": "minecraft:survives_explosion"
								},
								{
									"condition": "minecraft:table_bonus",
									"enchantment": "minecraft:fortune",
									"chances": [
										0.05,
										0.0625,
										0.083333336,
										0.1
									]
								}
							]
						}
					]
				}
			]
		},
		{
			"name": "stick",
			"rolls": 1,
			"entries": [
				{
					"type": "minecraft:item",
					"name": "nethercraft:glowood_stick",
					"conditions": [
						{
							"condition": "minecraft:table_bonus",
							"enchantment": "minecraft:fortune",
							"chances": [
								0.02,
								0.022222223,
								0.025,
								0.033333335,
								0.1
							]
						}
					],
					"functions": [
						{
							"function": "minecraft:set_count",
							"count": {
								"min": 1.0,
								"max": 2.0,
								"type": "minecraft:uniform"
							}
						},
						{
							"function": "minecraft:explosion_decay"
						}
					]
				}
			],
			"conditions": [
				{
					"condition": "minecraft:inverted",
					"term": {
						"condition": "minecraft:alternative",
						"terms": [
							{
								"condition": "minecraft:match_tool",
								"predicate": {
									"item": "minecraft:shears"
								}
							},
							{
								"condition": "minecraft:match_tool",
								"predicate": {
									"enchantments": [
										{
											"enchantment": "minecraft:silk_touch",
											"levels": {
												"min": 1
											}
										}
									]
								}
							}
						]
					}
				}
			]
		},
    {
      "rolls": 1,
      "entries": [
        {
          "type": "minecraft:item",
          "conditions": [
            {
              "condition": "minecraft:survives_explosion"
            },
            {
              "condition": "minecraft:table_bonus",
              "enchantment": "minecraft:fortune",
              "chances": [
                0.005,
                0.0055555557,
                0.00625,
                0.008333334,
                0.025
              ]
            }
          ],
          "name": "nethercraft:glow_apple"
        }
      ],
      "conditions": [
        {
          "condition": "minecraft:inverted",
          "term": {
            "condition": "minecraft:alternative",
            "terms": [
              {
                "condition": "minecraft:match_tool",
                "predicate": {
                  "item": "minecraft:shears"
                }
              },
              {
                "condition": "minecraft:match_tool",
                "predicate": {
                  "enchantments": [
                    {
                      "enchantment": "minecraft:silk_touch",
                      "levels": {
                        "min": 1
                      }
                    }
                  ]
                }
              }
            ]
          }
        }
      ]
    }
	]
}
