{
	"required": true,
	"package": "com.legacy.nethercraft.mixin",
	"compatibilityLevel": "JAVA_21",
	"refmap": "nethercraft.refmap.json",
	"mixins": [
		"MeleeAttackGoalMixin",
		"MinecraftServerMixin",
		"NoiseGeneratorSettingsMixin",
		"NoiseBasedChunkGeneratorMixin"
	],
	"client": [
		"PackRepositoryMixin"
	],
	"injectors": {
		"defaultRequire": 1
	},
	"minVersion": "0.8"
}
