{
  "parent": "minecraft:block/slab_top",
  "textures": {
    "bottom": "nethercraft:block/glowood_planks",
    "side": "nethercraft:block/glowood_planks",
    "top": "nethercraft:block/glowood_planks"
  }
}