{
  "parent": "minecraft:block/door_top_right",
  "render_type": "minecraft:cutout",
  "textures": {
    "bottom": "nethercraft:block/glowood_door_bottom",
    "top": "nethercraft:block/glowood_door_top"
  }
}