{
  "parent": "minecraft:block/orientable",
  "textures": {
    "front": "nethercraft:block/netherrack_furnace_front_on",
    "side": "nethercraft:block/netherrack_furnace_side",
    "top": "nethercraft:block/netherrack_furnace_top"
  }
}