{
  "parent": "minecraft:block/template_glass_pane_side_alt",
  "render_type": "minecraft:cutout",
  "textures": {
    "edge": "nethercraft:block/slow_glass_pane_top",
    "pane": "nethercraft:block/slow_glass"
  }
}