{
  "type": "minecraft:random_selector",
  "config": {
    "default": {
      "feature": "nethercraft:huge_green_glowshroom",
      "placement": []
    },
    "features": [
      {
        "chance": 0.5,
        "feature": {
          "feature": "nethercraft:huge_purple_glowshroom",
          "placement": []
        }
      }
    ]
  }
}