{
   
	 "parent": "block/cube",
    
	 "textures": {
        
	 "particle":"nethercraft:block/glowood_crafting_table_front",
		"down": "nethercraft:block/glowood_planks",

		"up": "nethercraft:block/glowood_crafting_table_top",

		"north": "nethercraft:block/glowood_crafting_table_front",
		"east": "nethercraft:block/glowood_crafting_table_side",  
		"south": "nethercraft:block/glowood_crafting_table_side",
		"west": "nethercraft:block/glowood_crafting_table_front"
	}

}
