{
    
	"parent": "block/orientable",
    
	"textures": {
        
		"top": "nethercraft:block/netherrack_furnace_side",
        
		"front": "nethercraft:block/netherrack_furnace_active",
        
		"side": "nethercraft:block/netherrack_furnace_side"
    
	}

}
