{
    "parent": "block/slab_top",
    "textures": {
        "bottom": "nethercraft:block/smooth_netherrack",
        "top": "nethercraft:block/smooth_netherrack",
        "side": "nethercraft:block/smooth_netherrack_slab_side"
    }
}
