{
  "variants": {
    "facing=east": {
      "model": "nethercraft:block/foulite_wall_torch"
    },
    "facing=north": {
      "model": "nethercraft:block/foulite_wall_torch",
      "y": 270
    },
    "facing=south": {
      "model": "nethercraft:block/foulite_wall_torch",
      "y": 90
    },
    "facing=west": {
      "model": "nethercraft:block/foulite_wall_torch",
      "y": 180
    }
  }
}