{
  "variants": {
    "powered=false": {
      "model": "nethercraft:block/glowood_pressure_plate"
    },
    "powered=true": {
      "model": "nethercraft:block/glowood_pressure_plate_down"
    }
  }
}