{
  "variants": {
    "": [
      {
        "model": "nethercraft:block/heat_sand"
      },
      {
        "model": "nethercraft:block/heat_sand",
        "y": 90
      },
      {
        "model": "nethercraft:block/heat_sand",
        "y": 180
      },
      {
        "model": "nethercraft:block/heat_sand",
        "y": 270
      }
    ]
  }
}