{
  "variants": {
    "axis=x": {
      "model": "nethercraft:block/stripped_glowood_log_horizontal",
      "x": 90,
      "y": 90
    },
    "axis=y": {
      "model": "nethercraft:block/stripped_glowood_log"
    },
    "axis=z": {
      "model": "nethercraft:block/stripped_glowood_log_horizontal",
      "x": 90
    }
  }
}