{
  "type": "minecraft:crafting_shaped",
  "category": "misc",
  "key": {
    "#": "nethercraft:glowood_planks"
  },
  "pattern": [
    "##",
    "##"
  ],
  "result": {
    "count": 1,
    "id": "nethercraft:glowood_crafting_table"
  }
}