{
    "variants": {
        "facing=east": { "model": "nethercraft:block/charcoal_torch_wall" },
        "facing=south": { "model": "nethercraft:block/charcoal_torch_wall", "y": 90 },
        "facing=west": { "model": "nethercraft:block/charcoal_torch_wall", "y": 180 },
        "facing=north": { "model": "nethercraft:block/charcoal_torch_wall", "y": 270 }
    }
}
