{
    "variants": {
        "type=bottom": { "model": "nethercraft:block/glowood_slab" },
        "type=top": { "model": "nethercraft:block/glowood_slab_top" },
        "type=double": { "model": "nethercraft:block/glowood_planks" }
    }
}
