{
    "variants": {
        "": [
            { "model": "nethercraft:block/heat_sand" },
            { "model": "nethercraft:block/heat_sand", "x": 90 },
            { "model": "nethercraft:block/heat_sand", "x": 180 },
            { "model": "nethercraft:block/heat_sand", "x": 270 },
            { "model": "nethercraft:block/heat_sand", "y": 90 },
            { "model": "nethercraft:block/heat_sand", "y": 90, "x": 90 },
            { "model": "nethercraft:block/heat_sand", "y": 90, "x": 180 },
            { "model": "nethercraft:block/heat_sand", "y": 90, "x": 270 },
            { "model": "nethercraft:block/heat_sand", "y": 180 },
            { "model": "nethercraft:block/heat_sand", "y": 180, "x": 90 },
            { "model": "nethercraft:block/heat_sand", "y": 180, "x": 180 },
            { "model": "nethercraft:block/heat_sand", "y": 180, "x": 270 },
            { "model": "nethercraft:block/heat_sand", "y": 270 },
            { "model": "nethercraft:block/heat_sand", "y": 270, "x": 90 },
            { "model": "nethercraft:block/heat_sand", "y": 270, "x": 180 },
            { "model": "nethercraft:block/heat_sand", "y": 270, "x": 270 }
        ]
    }
}
