{
  "type": "minecraft:crafting_shaped",
  "pattern": [
    "###"
  ],
  "key": {
    "#": [
      {
        "item": "nethercraft:dark_wheat"
      }
    ]
  },
  "result": {
    "item": "nethercraft:devil_bread"
  }
}
