{
  "type": "minecraft:crafting_shaped",
  "pattern": [
    "X#X",
    "#X#",
    "X#X"
  ],
  "key": {
    "#": [
       {
         "item": "nethercraft:heat_sand"
       }
    ],
    "X": {
      "item": "nethercraft:ghast_marrow"
    }
  },
  "result": {
    "item": "nethercraft:ghast_bomb"
  }
}
