{
  "type": "minecraft:crafting_shaped",
  "pattern": [
    "XX ",
    " # ",
    " # "
  ],
  "key": {
    "#": {
      "item": "nethercraft:glowood_stick"
    },
    "X": {
      "item": "nethercraft:glowood_planks"
    }
  },
  "result": {
    "item": "nethercraft:glowood_hoe"
  }
}