{
  "type": "minecraft:crafting_shaped",
  "pattern": [
    "##",
    "##",
    "##"
  ],
  "key": {
    "#": {
      "item": "nethercraft:glowood_planks"
    }
  },
  "result": {
    "item": "nethercraft:glowood_door",
    "count": 3
  }
}