{
  "type": "crafting_shapeless",
  "ingredients": [
    {
      "item": "nethercraft:lava_paper"
    },
	{
      "item": "nethercraft:lava_paper"
    },
	{
      "item": "nethercraft:lava_paper"
    },
    {
      "item": "nethercraft:imp_skin"
    }
  ],
  "result": {
    "item": "nethercraft:lava_book",
    "count": 1
  }
}