{
  "type": "minecraft:crafting_shaped",
  "pattern": [
    "###"
  ],
  "key": {
    "#": [
      {
        "item": "nethercraft:lava_reeds"
      }
    ]
  },
  "result": {
    "item": "nethercraft:lava_paper",
    "count": 3
  }
}
