{
  "type": "minecraft:crafting_shaped",
  "pattern": [
    "X",
    "#",
    "#"
  ],
  "key": {
    "#": {
      "item": "nethercraft:ghast_rod"
    },
    "X": {
      "item": "nethercraft:linium_ingot"
    }
  },
  "result": {
    "item": "nethercraft:linium_shovel"
  }
}