{
  "type": "minecraft:crafting_shaped",
  "pattern": [
    "#"
  ],
  "key": {
    "#": {
      "item": "nethercraft:lava_reeds"
    }
  },
  "result": {
    "item": "nethercraft:magma_caramel",
    "count": 1
  }
}