{
  "type": "minecraft:crafting_shaped",
  "pattern": [
    "# #",
    " # "
  ],
  "key": {
    "#": [
      {
        "item": "nethercraft:neridium_ingot"
      }
    ]
  },
  "result": {
    "item": "nethercraft:neridium_bucket"
  }
}
