{
  "type": "minecraft:crafting_shaped",
  "pattern": [
    " #X",
    "Y X",
    " #X"
  ],
  "key": {
    "#": {
      "item": "nethercraft:ghast_rod"
    },
    "X": {
      "item": "minecraft:string"
    },
    "Y": {
      "item": "nethercraft:pyridium_ingot"
    }
  },
  "result": {
    "item": "nethercraft:pyridium_bow"
  }
}